<?xml version="1.0" encoding="UTF-8" standalone="no"?>
<!-- Generator: Adobe Illustrator 19.0.0, SVG Export Plug-In . SVG Version: 6.00 Build 0)  -->

<svg
   xmlns:dc="http://purl.org/dc/elements/1.1/"
   xmlns:cc="http://creativecommons.org/ns#"
   xmlns:rdf="http://www.w3.org/1999/02/22-rdf-syntax-ns#"
   xmlns:svg="http://www.w3.org/2000/svg"
   xmlns="http://www.w3.org/2000/svg"
   xmlns:sodipodi="http://sodipodi.sourceforge.net/DTD/sodipodi-0.dtd"
   xmlns:inkscape="http://www.inkscape.org/namespaces/inkscape"
   version="1.1"
   id="Capa_1"
   x="0px"
   y="0px"
   viewBox="0 0 512 512"
   style="enable-background:new 0 0 512 512;"
   xml:space="preserve"
   sodipodi:docname="access.svg"
   inkscape:version="0.92.1 r15371"><metadata
     id="metadata61"><rdf:RDF><cc:Work
         rdf:about=""><dc:format>image/svg+xml</dc:format><dc:type
           rdf:resource="http://purl.org/dc/dcmitype/StillImage" /><dc:title></dc:title></cc:Work></rdf:RDF></metadata><defs
     id="defs59" /><sodipodi:namedview
     pagecolor="#ffffff"
     bordercolor="#666666"
     borderopacity="1"
     objecttolerance="10"
     gridtolerance="10"
     guidetolerance="10"
     inkscape:pageopacity="0"
     inkscape:pageshadow="2"
     inkscape:window-width="1366"
     inkscape:window-height="707"
     id="namedview57"
     showgrid="false"
     inkscape:zoom="0.35139547"
     inkscape:cx="538.3292"
     inkscape:cy="359.96538"
     inkscape:window-x="0"
     inkscape:window-y="0"
     inkscape:window-maximized="1"
     inkscape:current-layer="Capa_1" /><g
     id="g26" /><g
     id="g28" /><g
     id="g30" /><g
     id="g32" /><g
     id="g34" /><g
     id="g36" /><g
     id="g38" /><g
     id="g40" /><g
     id="g42" /><g
     id="g44" /><g
     id="g46" /><g
     id="g48" /><g
     id="g50" /><g
     id="g52" /><g
     id="g54" /><path
     inkscape:connector-curvature="0"
     d="m 431.88351,236.47145 c -6.01324,-6.1699 -14.41533,-9.42743 -23.00123,-8.95742 l -103.91581,5.78444 57.1874,-65.1311 c 8.14691,-9.27774 10.47449,-21.64548 7.32477,-32.69702 -1.66211,-7.57297 -6.24824,-14.46341 -13.2938,-18.86572 -0.21639,-0.15434 -136.69736,-79.439385 -136.69736,-79.439385 -11.14461,-6.473942 -25.18765,-5.047612 -34.8051,3.530536 l -66.66912,59.469989 c -12.28319,10.95614 -13.35895,29.79549 -2.40203,42.07946 10.95769,12.28242 29.79782,13.36128 42.08023,2.40126 l 50.54437,-45.086466 41.78474,24.264676 -73.75656,84.00148 c -30.58428,4.98789 -58.10261,19.08133 -79.704647,39.40131 l 38.516347,38.51635 c 17.41147,-15.83157 40.52981,-25.49479 65.86249,-25.49479 54.0338,0 97.9941,43.96107 97.9941,97.99565 0,25.33268 -9.66322,48.44947 -25.49323,65.86094 l 38.51402,38.51635 c 25.65688,-27.27479 41.40313,-63.97468 41.40313,-104.37729 0,-24.07078 -5.5882,-46.8339 -15.52443,-67.07553 l 40.22345,-2.24072 -9.78498,120.02427 c -1.33791,16.40551 10.87935,30.78748 27.28564,32.12695 0.82136,0.0667 1.64117,0.0985 2.45323,0.0985 15.36155,0 28.40329,-11.80387 29.67217,-27.38337 l 12.55931,-154.1003 c 0.70114,-8.58668 -2.34697,-17.05469 -8.3571,-23.22305 z"
     id="path4538"
     style="stroke-width:0.77560109;fill:#005c94;fill-opacity:1" /><path
     inkscape:connector-curvature="0"
     d="m 376.68243,108.80054 c 27.55167,0 49.88433,-22.334989 49.88433,-49.888217 0,-27.551677 -22.33266,-49.8889875 -49.88433,-49.8889875 -27.55478,0 -49.88899,22.3373105 -49.88899,49.8889875 0,27.553228 22.33343,49.888217 49.88899,49.888217 z"
     id="path4540"
     style="stroke-width:0.77560109;fill:#005c94;fill-opacity:1" /><path
     inkscape:connector-curvature="0"
     d="m 200.93898,456.23957 c -54.03458,0 -97.99564,-43.96107 -97.99564,-97.99565 0,-20.36418 6.24824,-39.29195 16.92128,-54.98003 l -38.932067,-38.9313 c -20.285846,25.88724 -32.413144,58.47489 -32.413144,93.91133 0,84.17986 68.239711,152.4188 152.419571,152.4188 35.43799,0 68.02254,-12.1273 93.909,-32.41392 l -38.93129,-38.92975 c -15.68731,10.66995 -34.61508,16.92052 -54.97771,16.92052 z"
     id="path4542"
     style="stroke-width:0.77560109;fill:#19aeff" /></svg>