<?xml version="1.0" encoding="UTF-8" standalone="no"?>
<!-- Generator: Adobe Illustrator 19.0.0, SVG Export Plug-In . SVG Version: 6.00 Build 0)  -->

<svg
   xmlns:dc="http://purl.org/dc/elements/1.1/"
   xmlns:cc="http://creativecommons.org/ns#"
   xmlns:rdf="http://www.w3.org/1999/02/22-rdf-syntax-ns#"
   xmlns:svg="http://www.w3.org/2000/svg"
   xmlns="http://www.w3.org/2000/svg"
   xmlns:sodipodi="http://sodipodi.sourceforge.net/DTD/sodipodi-0.dtd"
   xmlns:inkscape="http://www.inkscape.org/namespaces/inkscape"
   version="1.1"
   id="Layer_1"
   x="0px"
   y="0px"
   viewBox="0 0 508 508"
   style="enable-background:new 0 0 508 508;"
   xml:space="preserve"
   sodipodi:docname="usuario.svg"
   inkscape:version="0.92.1 r15371"><metadata
     id="metadata127"><rdf:RDF><cc:Work
         rdf:about=""><dc:format>image/svg+xml</dc:format><dc:type
           rdf:resource="http://purl.org/dc/dcmitype/StillImage" /><dc:title></dc:title></cc:Work></rdf:RDF></metadata><defs
     id="defs125" /><sodipodi:namedview
     pagecolor="#ffffff"
     bordercolor="#666666"
     borderopacity="1"
     objecttolerance="10"
     gridtolerance="10"
     guidetolerance="10"
     inkscape:pageopacity="0"
     inkscape:pageshadow="2"
     inkscape:window-width="1024"
     inkscape:window-height="702"
     id="namedview123"
     showgrid="false"
     inkscape:zoom="0.32849843"
     inkscape:cx="749.38166"
     inkscape:cy="102.91674"
     inkscape:window-x="0"
     inkscape:window-y="0"
     inkscape:window-maximized="1"
     inkscape:current-layer="Layer_1" /><circle
     style="fill:#90DFAA;"
     cx="254"
     cy="254"
     r="254"
     id="circle2" /><g
     id="g92" /><g
     id="g94" /><g
     id="g96" /><g
     id="g98" /><g
     id="g100" /><g
     id="g102" /><g
     id="g104" /><g
     id="g106" /><g
     id="g108" /><g
     id="g110" /><g
     id="g112" /><g
     id="g114" /><g
     id="g116" /><g
     id="g118" /><g
     id="g120" /><g
     id="g207"
     transform="translate(-11.947405,-4.7885689)"><path
       id="path4559"
       d="m 233.06228,159.75418 h 10.67902 32.39609 10.68015 l 4.35421,45.30568 7.73383,6.20664 16.31283,10.38304 -55.27906,130.57245 -55.27682,-130.57245 16.31283,-10.38304 7.7372,-6.20327 z"
       style="fill:#f0b97d;stroke-width:1.12541115"
       inkscape:connector-curvature="0" /><path
       id="path4561"
       d="m 216.0922,214.37376 -78.80803,25.15181 c 0,0 -7.66743,3.99183 -11.71216,15.57457 -23.47495,25.15181 -98.667039,107.35071 -98.667039,128.21921 0,24.72978 64.179944,84.29329 64.179944,84.29329 h 30.462625 v 21.34455 h 138.39293 138.39518 v -21.34455 h 30.46488 c 0,0 64.17877,-59.56351 64.17877,-84.29329 0,-20.87413 -75.2033,-103.07866 -98.67037,-128.22709 C 390.25858,243.5174 382.5979,239.5267 382.5979,239.5267 l -78.27009,-24.80857 -6.64105,19.47749 -37.74629,-1.83216 -37.19709,1.80628 z M 121.54754,358.4714 v 0 l 9.76745,38.96173 -1.72751,41.16078 -8.03994,-9.20136 -28.048618,-40.06576 z m 276.78811,70.9234 v 0 l -8.03543,8.70393 -1.73089,-47.81421 9.76632,-31.81763 28.05312,30.86103 z"
       style="fill:#19aeff;stroke-width:1.12541115"
       inkscape:connector-curvature="0" /><path
       id="path4563"
       d="m 215.32805,214.6191 -10.6025,3.38186 55.2138,134.22215 55.70447,-133.91942 -11.31713,-3.58556 -27.71888,17.12989 h -33.23226 z"
       style="fill:#f1f1f1;stroke-width:1.12541115"
       inkscape:connector-curvature="0" /><path
       id="path4565"
       d="m 216.0922,214.37376 -17.00046,5.42673 -3.26481,43.13138 c 0,0 0.8992,3.54505 3.59794,3.22656 l 15.3416,5.7666 c 0,0 1.00387,1.00612 0.10579,2.27446 l -13.13017,8.99653 45.36307,85.49298 c 4.2473,0.24534 8.52724,0.36914 12.83306,0.36914 4.31032,0 8.58801,-0.1238 12.83419,-0.36914 l 45.36307,-85.49298 -13.12905,-8.99653 c -0.89807,-1.26834 0.10467,-2.27446 0.10467,-2.27446 l 15.34048,-5.7666 c 2.70098,0.31849 3.60019,-3.22656 3.60019,-3.22656 l -3.25694,-42.99183 -16.47265,-5.22303 -44.38621,130.16842 z"
       style="fill:#005c94;stroke-width:1.12541115"
       inkscape:connector-curvature="0" /><path
       id="path4567"
       d="m 322.54484,67.623528 c 0,4.209037 1.53731,8.332543 1.42252,12.371644 14.40526,-2.673977 7.45022,40.113028 -0.70001,45.996678 -0.64711,0.46704 -2.24069,-0.57621 -3.58443,-1.43377 -2.82703,15.73887 -26.95472,57.78873 -42.2952,75.48807 -4.26081,4.9158 -30.31182,4.83252 -34.53099,0.18794 -15.71299,-17.29756 -39.80917,-59.84711 -42.65083,-75.67601 -1.34712,0.85868 -2.93957,1.90081 -3.58556,1.43377 -8.15023,-5.88365 -15.10639,-48.670655 -0.70113,-45.996678 -0.11367,-4.039101 1.42027,-8.162607 1.42027,-12.371644 0.79792,-33.224387 30.90154,-49.811819 62.60437,-49.952495 31.69833,0.140676 61.80532,16.728108 62.60099,49.952495 z"
       style="fill:#fed198;stroke-width:1.12541115"
       inkscape:connector-curvature="0" /><path
       id="path4569"
       d="m 303.24291,25.032347 c 4.54104,-0.527818 20.95178,4.498268 22.92013,21.859983 1.97172,17.362842 1.0275,33.35831 1.0275,33.35831 0,0 -9.61214,2.428637 -10.82308,12.281611 -1.20869,9.855229 -0.34663,9.855229 -0.34663,9.855229 l -3.48089,-0.78104 -2.48041,-16.895796 c -14.38275,-9.011166 0.10804,-22.360793 -14.27809,-25.487185 -38.85144,27.69074 -73.13034,22.95276 -88.58899,9.925001 0,0 3.6092,13.625352 0.82605,18.481501 -2.78201,4.859525 -1.1209,12.514569 -1.1209,12.514569 l -3.6137,-0.175562 c 0,0 0.65386,-20.063829 -7.36807,-19.976047 -30.47725,-50.32163 66.01324,-112.832589 107.32708,-54.960574 z"
       style="fill:#666666;stroke-width:1.12541115"
       inkscape:connector-curvature="0" /><path
       inkscape:connector-curvature="0"
       style="fill:#ffffff;stroke-width:1.12541115"
       d="m 228.33668,198.59099 c 1.12878,0.0799 -13.15606,16.06975 -13.15606,16.06975 l 12.15894,41.32847 32.60204,-24.14457 c -17.93343,-8.73206 -28.63496,-20.04357 -31.60492,-33.25365 z"
       id="path4571" /><path
       inkscape:connector-curvature="0"
       style="fill:#ffffff;stroke-width:1.12541115"
       d="m 291.54877,198.59099 c -1.12654,0.0799 13.1538,16.06975 13.1538,16.06975 l -12.16119,41.32847 -32.59978,-24.14457 c 17.93342,-8.73206 28.63608,-20.04357 31.60717,-33.25365 z"
       id="path4573" /><path
       id="path4577"
       d="m 118.73627,443.57723 c 18.38021,0 33.27728,9.24863 33.27728,20.6558 0,11.40604 -14.89707,20.65579 -33.27728,20.65579 -18.38022,0 -33.277285,-9.25087 -33.277285,-20.65579 0,-11.40717 14.897065,-20.6558 33.277285,-20.6558 z m 0,5.456 v 0 c -14.30398,0 -25.895713,6.81099 -25.895713,15.1998 0,8.39332 11.591733,15.2043 25.895713,15.2043 14.30397,0 25.89796,-6.81098 25.89796,-15.2043 -0.001,-8.38881 -11.59399,-15.1998 -25.89796,-15.1998 z"
       style="fill:#ecf0f1;stroke-width:1.12541115"
       inkscape:connector-curvature="0" /><path
       id="path4579"
       d="m 118.73627,479.43508 c 14.26346,0 25.89796,-6.82787 25.89796,-15.1998 0,-8.37306 -11.6345,-15.20205 -25.89796,-15.20205 -14.26346,0 -25.895713,6.82899 -25.895713,15.20205 -0.0011,8.37081 11.632253,15.1998 25.895713,15.1998 z"
       style="fill:#377bb9;stroke-width:1.12541115"
       inkscape:connector-curvature="0" /><path
       id="path4581"
       d="m 108.19792,472.9167 v 16.64596 c 0,2.064 -1.68587,3.75324 -3.75438,3.75324 h -6.618538 c -2.065129,0 -3.754371,-1.68924 -3.754371,-3.75324 v -25.75954 c 0,-0.39389 0.0619,-0.77315 0.175564,-1.13104 v -5.67094 c 0,-4.82014 3.943441,-8.76245 8.764705,-8.76245 h 54.18854 c 4.82014,0 8.7602,3.94119 8.7602,8.76245 v 5.66307 c 0.11817,0.359 0.17894,0.74164 0.17894,1.14004 v 25.75953 c 0,2.06401 -1.68699,3.75325 -3.75437,3.75325 h -6.61742 c -2.06625,0 -3.75437,-1.68924 -3.75437,-3.75325 v -16.64595 h -5.18814 v 16.64595 c 0,2.06401 -1.68587,3.75325 -3.75438,3.75325 h -6.61854 c -2.06625,0 -3.75437,-1.68924 -3.75437,-3.75325 v -16.64595 h -5.18589 v 16.64595 c 0,2.06401 -1.68925,3.75325 -3.75438,3.75325 h -6.61854 c -2.0685,0 -3.75437,-1.68924 -3.75437,-3.75325 v -16.64595 z"
       style="fill:#fbb429;stroke-width:1.12541115"
       inkscape:connector-curvature="0" /><path
       id="path4583"
       d="m 401.15481,443.57723 c -18.37684,0 -33.27616,9.24863 -33.27616,20.6558 0,11.40604 14.89819,20.65579 33.27616,20.65579 18.38021,0 33.27953,-9.25087 33.27953,-20.65579 0,-11.40717 -14.90045,-20.6558 -33.27953,-20.6558 z m 0,5.456 v 0 c 14.30397,0 25.89796,6.81099 25.89796,15.1998 0,8.39332 -11.59286,15.2043 -25.89796,15.2043 -14.30398,0 -25.89459,-6.81098 -25.89459,-15.2043 -10e-4,-8.38881 11.58948,-15.1998 25.89459,-15.1998 z"
       style="fill:#ecf0f1;stroke-width:1.12541115"
       inkscape:connector-curvature="0" /><path
       id="path4585"
       d="m 401.15706,479.43508 c 14.26233,0 25.89796,-6.82787 25.89796,-15.1998 0,-8.37306 -11.63563,-15.20205 -25.89796,-15.20205 -14.26346,0 -25.89571,6.82899 -25.89571,15.20205 -10e-4,8.37081 11.63225,15.1998 25.89571,15.1998 z"
       style="fill:#333333;stroke-width:1.12541115"
       inkscape:connector-curvature="0" /><path
       id="path4587"
       d="m 411.69428,472.9167 v 16.64596 c 0,2.064 1.68587,3.75324 3.75437,3.75324 h 6.61854 c 2.06738,0 3.75325,-1.68924 3.75325,-3.75324 v -25.75954 c 0,-0.39389 -0.0619,-0.77315 -0.17556,-1.13104 v -5.67094 c 0,-4.82014 -3.94119,-8.76245 -8.76245,-8.76245 h -54.18967 c -4.82014,0 -8.76246,3.94119 -8.76246,8.76245 v 5.66307 c -0.11816,0.359 -0.17781,0.74164 -0.17781,1.14004 v 25.75953 c 0,2.06401 1.68587,3.75325 3.75325,3.75325 h 6.61966 c 2.06401,0 3.75325,-1.68924 3.75325,-3.75325 v -16.64595 h 5.18702 v 16.64595 c 0,2.06401 1.68924,3.75325 3.75437,3.75325 h 6.61854 c 2.06851,0 3.75438,-1.68924 3.75438,-3.75325 v -16.64595 h 5.18814 v 16.64595 c 0,2.06401 1.68699,3.75325 3.75437,3.75325 h 6.61854 c 2.06513,0 3.751,-1.68924 3.751,-3.75325 v -16.64595 z"
       style="fill:#fbb429;stroke-width:1.12541115"
       inkscape:connector-curvature="0" /><path
       id="path4589"
       d="m 111.49987,283.03622 h 296.88795 c 9.48159,0 17.23792,7.75745 17.23792,17.23567 v 164.08719 c 0,9.47933 -7.75633,17.23904 -17.23792,17.23904 H 111.49987 c -9.48159,0 -17.239045,-7.75971 -17.239045,-17.23904 V 300.27189 c 0,-9.47822 7.757455,-17.23567 17.239045,-17.23567 z"
       style="fill:#ffffff;stroke-width:1.12541115"
       inkscape:connector-curvature="0" /><path
       id="path4591"
       d="m 100.80171,490.05334 h 318.28427 c 3.59794,0 6.54089,2.94407 6.54089,6.54651 v 12.61586 c 0,3.60357 -2.94408,6.54427 -6.54089,6.54427 H 100.80171 c -3.59906,0 -6.543135,-2.9407 -6.543135,-6.54427 v -12.61586 c 0,-3.60244 2.944075,-6.54651 6.543135,-6.54651 z"
       style="fill:#c8cacc;stroke-width:1.12541115"
       inkscape:connector-curvature="0" /><path
       inkscape:connector-curvature="0"
       style="fill:#ecf0f1;stroke-width:1.12541115"
       d="m 142.93148,477.65018 h 28.13303 v 19.18151 h -28.13303 z m 205.89621,0 v 0 h 28.13303 v 19.18151 h -28.13303 z"
       id="path4593" /><path
       inkscape:connector-curvature="0"
       style="fill:#ecf0f1;stroke-width:1.12541115"
       d="m 228.7317,357.47316 h 62.42205 c 0.83843,0 1.52043,0.682 1.52043,1.52043 v 14.13066 c 0,0.8373 -0.682,1.51818 -1.52043,1.51818 H 228.7317 c -0.83731,0 -1.51818,-0.68088 -1.51818,-1.51818 v -14.13066 c 0.001,-0.83843 0.68087,-1.52043 1.51818,-1.52043 z"
       id="path4595" /><path
       id="path36-3"
       d="m 348.267,358.4 c -5.333,-1.067 -11.733,-1.067 -17.067,0 l -13.867,-17.067 -22.4,9.6 2.133,22.4 c -4.267,3.2 -8.533,7.467 -12.8,12.8 L 262.933,384 l -9.6,22.4 17.067,13.867 c -1.067,5.333 -1.067,11.733 0,17.067 l -17.067,13.866 9.6,22.4 22.4,-2.133 c 3.2,4.267 7.467,8.533 12.8,12.8 L 296,505.6 l 22.4,9.6 13.867,-17.067 c 5.333,1.067 11.733,1.067 17.067,0 l 13.866,17.067 22.4,-9.6 -2.133,-22.4 c 4.267,-3.2 8.533,-7.467 12.8,-12.8 l 21.333,2.133 9.6,-22.4 -20.267,-14.933 c 1.067,-5.333 1.067,-11.733 0,-17.067 L 424,404.267 414.4,381.867 392,384 c -3.2,-4.267 -7.467,-8.533 -12.8,-12.8 l 2.133,-21.333 -19.2,-8.533 z m 0,45.867 c 11.733,5.333 18.133,19.2 12.8,30.933 -5.333,11.733 -19.2,18.133 -30.933,12.8 -11.733,-5.333 -18.133,-19.2 -12.8,-30.933 5.333,-11.734 19.199,-18.134 30.933,-12.8 z"
       style="fill:#66c6b9"
       inkscape:connector-curvature="0" /><path
       id="path38-6"
       d="m 297.067,409.6 c -9.6,22.4 1.067,49.067 24.533,58.667 23.467,9.6 49.067,-1.067 58.667,-24.533 9.6,-22.4 -1.067,-49.067 -24.533,-58.667 -22.401,-9.6 -49.067,1.066 -58.667,24.533 z m 20.266,7.467 c 5.333,-11.733 19.2,-18.133 30.933,-12.8 11.733,5.333 18.133,19.2 12.8,30.933 -5.333,11.733 -19.2,18.133 -30.933,12.8 -12.8,-4.267 -18.133,-18.133 -12.8,-30.933 z"
       style="fill:#4abaa5"
       inkscape:connector-curvature="0" /><path
       id="path40-7"
       d="m 436.8,267.733 c -4.267,1.067 -8.533,3.2 -11.733,4.267 l -13.867,-7.467 -12.8,11.733 7.467,13.867 c -2.133,3.2 -4.267,7.467 -5.333,11.733 l -14.933,4.267 V 323.2 l 14.933,4.267 c 1.067,4.267 3.2,8.533 4.267,11.733 l -7.467,13.867 11.733,12.8 13.867,-7.467 c 3.2,2.133 7.467,4.267 11.733,5.333 l 4.267,14.933 H 456 l 4.267,-14.933 c 4.267,-1.067 8.533,-3.2 11.733,-4.267 l 13.867,7.467 12.8,-11.733 -5.333,-13.867 c 2.133,-3.2 4.267,-7.467 5.333,-11.733 L 513.6,325.333 V 308.266 L 498.667,304 c -1.067,-4.267 -3.2,-8.533 -4.267,-11.733 l 7.467,-13.867 -11.733,-12.8 -13.867,7.467 c -3.2,-2.133 -7.467,-4.267 -11.733,-5.333 l -4.267,-14.933 H 443.2 Z m 12.8,30.934 c 9.6,0 17.067,7.467 17.067,18.133 0,9.6 -7.467,17.067 -18.133,17.067 -9.6,0 -17.067,-7.467 -17.067,-18.133 1.066,-9.601 8.533,-18.134 18.133,-17.067 z"
       style="fill:#ffd15c"
       inkscape:connector-curvature="0" /><path
       id="path42-5"
       d="m 417.6,315.733 c 0,18.133 13.867,33.067 32,33.067 18.133,0 33.067,-14.933 33.067,-32 0,-18.133 -13.867,-33.067 -32,-33.067 -18.134,-1.066 -33.067,13.867 -33.067,32 z m 14.933,0 c 0,-9.6 7.467,-17.067 18.133,-17.067 9.6,0 17.067,7.467 17.067,18.133 0,10.666 -7.467,17.067 -18.133,17.067 -9.6,-1.066 -17.067,-8.533 -17.067,-18.133 z"
       style="fill:#f7b64c"
       inkscape:connector-curvature="0" /><g
       id="g44" /><g
       id="g46-3" /><g
       id="g48" /><g
       id="g50" /><g
       id="g52" /><g
       id="g54" /><g
       id="g56-5" /><g
       id="g58" /><g
       id="g60" /><g
       id="g62" /><g
       id="g64-6" /><g
       id="g66" /><g
       id="g68" /><g
       id="g70" /><g
       id="g72-2" /></g><g
     id="g213"
     transform="translate(-578.10426,-421.79345)"><g
       transform="translate(691.29846,287.64952)"
       id="g64"><path
         inkscape:connector-curvature="0"
         id="path60"
         d="m 134.4,360.8 c 0,0.4 0,0.4 0,0 -0.4,0 -0.4,0 -0.4,0 z"
         style="fill:#54c0eb" /><path
         inkscape:connector-curvature="0"
         id="path62"
         d="m 154,366.4 -6.4,18.8 h -26 l -6.4,-18.8 c 10.8,-4.4 19.6,-5.2 19.6,-5.2 0,0 8.4,0.8 19.2,5.2 z"
         style="fill:#54c0eb" /></g><path
       inkscape:connector-curvature="0"
       id="path66"
       d="m 847.22963,700.2528 -8.33117,-27.40328 h -26 l -7.58507,27.01041 z"
       style="fill:#84dbff"
       sodipodi:nodetypes="ccccc" /></g><path
     style="fill:#324a5e"
     d="m 290.65615,91.436515 h -23.2 -2 -36.4 -1.2 -24 c -7.2,0 -12.8,5.599999 -12.8,12.799995 v 10.8 c 0,7.2 5.6,12.8 12.8,12.8 h 25.2 c 3.20001,0 6.4,-1.2 8.4,-3.2 0.8,-0.4 1.2,-0.8 1.6,-1.6 1.6,-4 4.8,-6.4 8,-6.4 3.20001,0 6.4,2.4 8,6.4 0.4,0.8 0.8,1.2 1.6,1.6 2.4,2 5.20001,3.2 8.4,3.2 h 25.6 c 7.20001,0 12.8,-5.6 12.8,-12.8 v -10.8 c 0,-7.199996 -6,-12.799995 -12.8,-12.799995 z m -87.2,30.399995 c -3.6,0 -6.8,-3.2 -6.8,-6.8 v -10.8 c 0,-3.6 3.20001,-6.799996 6.8,-6.799996 h 24 1.2 c 3.60001,0 6.8,3.199996 6.8,6.799996 v 10.8 c 0,0.8 0,2 -0.4,2.8 -0.4,0.4 -0.4,0.8 -0.79999,1.6 -1.20001,1.6 -3.20001,2.8 -5.60001,2.8 h -25.2 z m 43.6,-11.6 c -2,0 -3.6,0.4 -5.2,1.2 v -7.6 c 0,-2.4 -0.8,-4.799996 -2,-6.799996 h 14.8 c -1.2,2 -2,4.399996 -2,6.799996 v 7.6 c -2,-0.4 -3.6,-1.2 -5.6,-1.2 z m 50,4.8 c 0,3.6 -3.2,6.8 -6.79999,6.8 h -25.20001 c -2.4,0 -4.4,-1.2 -5.6,-2.8 -0.4,-0.4 -0.4,-0.8 -0.8,-1.6 0,-0.8 0,-1.6 0,-2.4 v -10.8 c 0,-3.6 3.20001,-6.799996 6.8,-6.799996 h 2 23.2 c 3.60001,0 6.8,3.199996 6.8,6.799996 v 10.8 z"
     id="path90"
     inkscape:connector-curvature="0" /></svg>